Accessing the CSO Statbank API · Dan Brennan
…
Use the function fromJSONstat() to read in the JSON data as a list

census_url <- "http://www.cso.ie/StatbankServices/StatbankServices.svc/jsonservice/responseinstance/EY001"

table <- fromJSONstat(census_url)

Convert the list into a tibble() using as_data_frame()

table <- table[[1]] %>% 
    as_data_frame()

table

## # A tibble: 2,025 × 5
##    County        Sex `Census Year`
##     <chr>      <chr>         <chr>
## 1   State Both sexes          1841
## 2   State Both sexes          1851
## 3   State Both sexes          1861
## 4   State Both sexes          1871
## 5   State Both sexes          1881
## 6   State Both sexes          1891
## 7   State Both sexes          1901
## 8   State Both sexes          1911
## 9   State Both sexes          1926
## 10  State Both sexes          1936
## # ... with 2,015 more rows, and 2 more variables: Statistic <chr>,
## #   value <int>
…
